{
    "disableAutoUpdate": true,
    "name": "script-lancer",
    "author": "<font color='#FDD017'>AOC 2024</font>",
    "description": "==",
    "version": "<font color='#FC0FC0'>GF v100.2</font>",
    "options": {
        "niceName": "script-lancer",
        "guiName": "<font color='#FDD017'>script-lancer</font>"
    }
}
