9044	BS	40	456	True	27	Weekly
9055	RG	40	412	True	3	Weekly
9126	PP	3	439	False	1	Daily
9511	AB	40	412	True	4	Weekly
9710	BP	40	439	True	17	Weekly
9713	GG	1	0	True	0	Daily
9716	SC	40	439	True	16	Weekly
9720	AA	40	446	True	22	Weekly
9735	RK	40	439	True	15	Weekly
9739	RR	40	439	True	11	Weekly
9760	KD	40	431	True	10	Weekly
9769	LK	40	431	True	9	Weekly
9770	RM	40	439	True	14	Weekly
9777	CW	40	412	True	2	Weekly
9780	VH	40	431	True	8	Weekly
9782	GLN	40	453	True	25	Weekly
9783	DRC	40	446	True	21	Weekly
9794	TR	40	431	True	7	Weekly
9860	KC	40	412	True	5	Weekly
9920	AAH	40	453	True	24	Weekly
9935	RKH	40	446	True	20	Weekly
9939	RRH	40	446	True	19	Weekly
9969	LKH	40	439	True	13	Weekly
9970	RMH	40	446	True	18	Weekly
9982	GLH	40	455	True	26	Weekly
9983	DRCH	40	453	True	23	Weekly
9994	TRH	40	439	True	12	Weekly
